^C:\USERS\PAYTON.JUNEAU\SOURCE\REPOS\TIMBERGAME\TIMBERGAME\DEBUG\PROGRAM.OBJ
/OUT:"C:\USERS\PAYTON.JUNEAU\SOURCE\REPOS\TIMBERGAME\DEBUG\TIMBERGAME.EXE" /INCREMENTAL /NOLOGO /LIBPATH:"C:\USERS\PAYTON.JUNEAU\DESKTOP\DEV\LIBS\SFML-2.5.1-WINDOWS-VC15-32-BIT\SFML-2.5.1\LIB" "SFML-GRAPHICS-D.LIB" "SFML-SYSTEM-D.LIB" "SFML-AUDIO-D.LIB" "SFML-NETWORK-D.LIB" "SFML-WINDOW-D.LIB" KERNEL32.LIB USER32.LIB GDI32.LIB WINSPOOL.LIB COMDLG32.LIB ADVAPI32.LIB SHELL32.LIB OLE32.LIB OLEAUT32.LIB UUID.LIB ODBC32.LIB ODBCCP32.LIB /MANIFEST /MANIFESTUAC:"level='asInvoker' uiAccess='false'" /manifest:embed /DEBUG:FASTLINK /PDB:"C:\USERS\PAYTON.JUNEAU\SOURCE\REPOS\TIMBERGAME\DEBUG\TIMBERGAME.PDB" /TLBID:1 /DYNAMICBASE /NXCOMPAT /IMPLIB:"C:\USERS\PAYTON.JUNEAU\SOURCE\REPOS\TIMBERGAME\DEBUG\TIMBERGAME.LIB" /MACHINE:X86 DEBUG\PROGRAM.OBJ
^C:\USERS\PAYTON.JUNEAU\SOURCE\REPOS\TIMBERGAME\TIMBERGAME\DEBUG\GAME.OBJ|C:\USERS\PAYTON.JUNEAU\SOURCE\REPOS\TIMBERGAME\TIMBERGAME\DEBUG\PROGRAM.OBJ
/OUT:"C:\USERS\PAYTON.JUNEAU\SOURCE\REPOS\TIMBERGAME\DEBUG\TIMBERGAME.EXE" /INCREMENTAL /NOLOGO /LIBPATH:"C:\USERS\PAYTON.JUNEAU\DESKTOP\DEV\LIBS\SFML-2.5.1-WINDOWS-VC15-32-BIT\SFML-2.5.1\LIB" "SFML-GRAPHICS-D.LIB" "SFML-SYSTEM-D.LIB" "SFML-AUDIO-D.LIB" "SFML-NETWORK-D.LIB" "SFML-WINDOW-D.LIB" KERNEL32.LIB USER32.LIB GDI32.LIB WINSPOOL.LIB COMDLG32.LIB ADVAPI32.LIB SHELL32.LIB OLE32.LIB OLEAUT32.LIB UUID.LIB ODBC32.LIB ODBCCP32.LIB /MANIFEST /MANIFESTUAC:"level='asInvoker' uiAccess='false'" /manifest:embed /DEBUG:FASTLINK /PDB:"C:\USERS\PAYTON.JUNEAU\SOURCE\REPOS\TIMBERGAME\DEBUG\TIMBERGAME.PDB" /TLBID:1 /DYNAMICBASE /NXCOMPAT /IMPLIB:"C:\USERS\PAYTON.JUNEAU\SOURCE\REPOS\TIMBERGAME\DEBUG\TIMBERGAME.LIB" /MACHINE:X86 DEBUG\GAME.OBJDEBUG\PROGRAM.OBJ
^E:\DEV\GAMES\SFMLTIMBER\TIMBERGAME\DEBUG\GAME.OBJ|E:\DEV\GAMES\SFMLTIMBER\TIMBERGAME\DEBUG\PROGRAM.OBJ
/OUT:"E:\DEV\GAMES\SFMLTIMBER\DEBUG\TIMBERGAME.EXE" /INCREMENTAL /NOLOGO /LIBPATH:"E:\DEV\LIBS\SFML-2.5.1-WINDOWS-VC15-32-BIT\SFML-2.5.1\LIB" /LIBPATH:"C:\USERS\PAYTON.JUNEAU\DESKTOP\DEV\LIBS\SFML-2.5.1-WINDOWS-VC15-32-BIT\SFML-2.5.1\LIB" "SFML-GRAPHICS-D.LIB" "SFML-SYSTEM-D.LIB" "SFML-AUDIO-D.LIB" "SFML-NETWORK-D.LIB" "SFML-WINDOW-D.LIB" KERNEL32.LIB USER32.LIB GDI32.LIB WINSPOOL.LIB COMDLG32.LIB ADVAPI32.LIB SHELL32.LIB OLE32.LIB OLEAUT32.LIB UUID.LIB ODBC32.LIB ODBCCP32.LIB /MANIFEST /MANIFESTUAC:"level='asInvoker' uiAccess='false'" /manifest:embed /DEBUG:FASTLINK /PDB:"E:\DEV\GAMES\SFMLTIMBER\DEBUG\TIMBERGAME.PDB" /TLBID:1 /DYNAMICBASE /NXCOMPAT /IMPLIB:"E:\DEV\GAMES\SFMLTIMBER\DEBUG\TIMBERGAME.LIB" /MACHINE:X86 DEBUG\GAME.OBJDEBUG\PROGRAM.OBJ
^C:\USERS\PAYTON.JUNEAU\DESKTOP\DEV\GAMES\SFMLTIMBER\TIMBERGAME\DEBUG\GAME.OBJ|C:\USERS\PAYTON.JUNEAU\DESKTOP\DEV\GAMES\SFMLTIMBER\TIMBERGAME\DEBUG\PROGRAM.OBJ
/OUT:"C:\USERS\PAYTON.JUNEAU\DESKTOP\DEV\GAMES\SFMLTIMBER\DEBUG\TIMBERGAME.EXE" /INCREMENTAL /NOLOGO /LIBPATH:"E:\DEV\LIBS\SFML-2.5.1-WINDOWS-VC15-32-BIT\SFML-2.5.1\LIB" /LIBPATH:"C:\USERS\PAYTON.JUNEAU\DESKTOP\DEV\LIBS\SFML-2.5.1-WINDOWS-VC15-32-BIT\SFML-2.5.1\LIB" "SFML-GRAPHICS-D.LIB" "SFML-SYSTEM-D.LIB" "SFML-AUDIO-D.LIB" "SFML-NETWORK-D.LIB" "SFML-WINDOW-D.LIB" KERNEL32.LIB USER32.LIB GDI32.LIB WINSPOOL.LIB COMDLG32.LIB ADVAPI32.LIB SHELL32.LIB OLE32.LIB OLEAUT32.LIB UUID.LIB ODBC32.LIB ODBCCP32.LIB /MANIFEST /MANIFESTUAC:"level='asInvoker' uiAccess='false'" /manifest:embed /DEBUG:FASTLINK /PDB:"C:\USERS\PAYTON.JUNEAU\DESKTOP\DEV\GAMES\SFMLTIMBER\DEBUG\TIMBERGAME.PDB" /TLBID:1 /DYNAMICBASE /NXCOMPAT /IMPLIB:"C:\USERS\PAYTON.JUNEAU\DESKTOP\DEV\GAMES\SFMLTIMBER\DEBUG\TIMBERGAME.LIB" /MACHINE:X86 DEBUG\GAME.OBJDEBUG\PROGRAM.OBJ
